{
  "type": "service_account",
  "project_id": "cinestaan-staging",
  "private_key_id": "c70fe0aee983e31109db597eb9c174f39cf81d05",
  "private_key": "-----BEGIN PRIVATE KEY-----\nMIIEvAIBADANBgkqhkiG9w0BAQEFAASCBKYwggSiAgEAAoIBAQC32my/16Y5h1w7\nMZPYtiV/YQzEB3ISuZr616Oe7wU7ND6C89JVn0GED9/QZ8hhyPtO+OOwNPGiv0YX\nTXmqIOkzgDpTEZoK97u/KYyxVgCvNFb0MzVUIMdUid3zA2g6A5rvMBZCuvvlL8Fr\nMYMDI1im6zs42nH7+/1WMWKekRUcqBtZA9Szc751xQkKobIiTRNGacjQCTG8YWey\nHiIJ3Uc0PvKbLaTHF8anTslNzw0oXyce7ydnR2tgfMaMFKhS5vOYPV/3kmUkLOlx\njPtL7Wu/AIL69y12uPehzIsnh6JztxesXgRzFTlvjsL4wENf36PBG4VoXvC5FFRu\nzeQG/bUnAgMBAAECggEAZmC9Gf7t0y8rDtNGrvCO5OWYBDjZLtAoGvKlbEVRNmyb\nOrSnNYKfKvjj+tsv3DPcrVcvAtoYjDXSw/siergk48bNs6AjlWPqKkLq030+mFGe\n8hDp61TtaofzDfWhvlxvlC3E15fj2PXE0PobKE4weZKXwcrymgzyP2L0tbO4e+G2\n1QqvEGE4W1f6k6WTuu/Gpy651eqM/SV1XfdeUh7ZXSgjmGKNOQbGizxwfz/HZ9Rh\n+7Ab5ShqtQG/nvCEQloGBtAeE9ZDn5qCG8CEEoEX3ctbXSJG/xBbBCgeVSbHVaj1\naGvKS0vX2lWP9VRq8d6w/2VwQOg0WWOe+ORoBZLdsQKBgQDey+8Ye9/nh8xc6gvR\nXbeG/GVXwqdqCInygDz6M1/k6bHHgYg2rQ2ZwwRGXBEQlbiP9qsduWAFVA97/wDZ\nAMWplAJVCPCA/rrBOjqW9WyTJDu7Qz3lxopoU6bypkGiw8fYYSeG6kSW+FfBHPOh\n//aYbTeymtTRioMfO8BqGLQhewKBgQDTQLwYRcYIXcWQDnU/0MeJ6VChOcwa2DtG\niTzA587qB0+Apk6WxtuOw0ziZ5Nfsgljkc+CkHs+nXZ57LBYSWbNvEyhNGK7tq40\nzIX6+1DrBPNvUCUchf/FKWUll8FYMpO87yQ7krum9DWoigutjOf4ztCs5GedK+bb\nSyHI7qVdRQKBgGnKbiKzF1NqMQjhfXERzgaDrF9qp3H60f3bFJk9cchRi0APaq2D\nqJSdfFcoelXksflyCDiaAFUnYB7hq/ZennzyMdVM5F5sFiOQUafCq6aGqvI1cJu9\nlZUKO5i2hy4RRsChCVLPxHfnPkwNQkZnMyGXor3lNS62VaKsDaaTSl0nAoGAI2s7\nHia0qTpvoVOLPQPYMLs5lY6HNgkDBzSDRySWgI5xOfSoQIde0HTWMy+CegzzngoY\nbJ+kyj7EWnTgrCzCW8QyZOTPmQFr+9Y+sHHqgzz1Q7iAQGQHGhtypfbnp83zDz5Z\nKNPVOoy/Yl6izppNWl3yhspUxPlTX3kdVP8OIrECgYB4lmKMRsmMML1V88ZLM0Uq\n/O+IGl9XZFVbXlVTkhWgMwNoP/bPyaNJQhn/9l4ADLX924r/cDzjb6VuaL0c4qNU\nVZtcgQU8szib79wU6FPG9ZdYiq+9OTZ+PJGbGVxSHjZwruL7P6hxS477wOHZ8LrQ\nT4vZOtgQs4I2YsoJPDvksg==\n-----END PRIVATE KEY-----\n",
  "client_email": "cinestaanstaging@cinestaan-staging.iam.gserviceaccount.com",
  "client_id": "102983794652792198647",
  "auth_uri": "https://accounts.google.com/o/oauth2/auth",
  "token_uri": "https://accounts.google.com/o/oauth2/token",
  "auth_provider_x509_cert_url": "https://www.googleapis.com/oauth2/v1/certs",
  "client_x509_cert_url": "https://www.googleapis.com/robot/v1/metadata/x509/cinestaanstaging%40cinestaan-staging.iam.gserviceaccount.com"
}
